{
  "project_info": {
    "project_number": "269172861643",
    "firebase_url": "https://webfoodapp-1570379154458.firebaseio.com",
    "project_id": "webfoodapp-1570379154458",
    "storage_bucket": "webfoodapp-1570379154458.appspot.com"
  },
  "client": [
    {
      "client_info": {
        "mobilesdk_app_id": "1:269172861643:android:1ff7265d601b6cd0fb894e",
        "android_client_info": {
          "package_name": "com.example.onlinequiz"
        }
      },
      "oauth_client": [
        {
          "client_id": "269172861643-fn3kt6ig0u2mhj6dfkg70216l4n3njv2.apps.googleusercontent.com",
          "client_type": 1,
          "android_info": {
            "package_name": "com.example.onlinequiz",
            "certificate_hash": "851cab380ff56f8202e2996118d85bae3bc342d1"
          }
        },
        {
          "client_id": "269172861643-voh2vset0lciofmpq5ot06hmeoe26ln9.apps.googleusercontent.com",
          "client_type": 1,
          "android_info": {
            "package_name": "com.example.onlinequiz",
            "certificate_hash": "2caa449ab54335e173a4d2d42cc45d1d628a09a6"
          }
        }
      ],
      "api_key": [
        {
          "current_key": "AIzaSyDOg74Ggmmu9D2tSyzNwfbIIxthHVN8Cog"
        }
      ],
      "services": {
        "appinvite_service": {
          "other_platform_oauth_client": []
        }
      }
    },
    {
      "client_info": {
        "mobilesdk_app_id": "1:269172861643:android:060e302f4b576ca4fb894e",
        "android_client_info": {
          "package_name": "com.webfood.customer"
        }
      },
      "oauth_client": [],
      "api_key": [
        {
          "current_key": "AIzaSyDOg74Ggmmu9D2tSyzNwfbIIxthHVN8Cog"
        }
      ],
      "services": {
        "appinvite_service": {
          "other_platform_oauth_client": []
        }
      }
    },
    {
      "client_info": {
        "mobilesdk_app_id": "1:269172861643:android:5806594e7be17cc1fb894e",
        "android_client_info": {
          "package_name": "com.webfood.restaurant"
        }
      },
      "oauth_client": [],
      "api_key": [
        {
          "current_key": "AIzaSyDOg74Ggmmu9D2tSyzNwfbIIxthHVN8Cog"
        }
      ],
      "services": {
        "appinvite_service": {
          "other_platform_oauth_client": []
        }
      }
    }
  ],
  "configuration_version": "1"
}